/fred/oz986/viterbi/viterbi/viterbi_cuda/viterbi_jstat_search --cjs_atoms=/fred/oz986/viterbi/jobs/379/atoms/188-0/atoms-%d --start_time=1238166483 --tblock=864000 --central_a0=0.01844 --a0_band=0.00012 --a0_bins=1 --central_P=4995.263 --P_band=0.003 --P_bins=1 --central_orbitTp=1238160263.9702501 --orbitTp_band=260.8101737969591 --orbitTp_bins=9 --ignore_wings=524288 --out_prefix=/fred/oz986/viterbi/jobs/379/viterbi/results --print_ll=True --llthreshold=170.27423 --block_size=2112320 
 -- subprocess standard output:
CJS atom pattern is /fred/oz986/viterbi/jobs/379/atoms/188-0/atoms-%d
Start time is 1238166483
tblock is 864000
central a0 is 0.018440
a0 band is 0.000120
a0 bins is 1
central P is 4995.263000
P band is 0.003000
P bins is 1
orbitTp is 1238160263.970250
orbitTp band is 260.810174
phase_bins bins is 9 (set through orbitTp handler)
ignore_wings is 864000
Out prefix is /fred/oz986/viterbi/jobs/379/viterbi/results
ll_threshold is 170.274230
Block size is 2112320
This version of the GPU code compiled for double precision.
a0 = 0.0184400000000000 phase bin = 0
NEW MAX: Score = 5.724685, loglike = 164.243303, a0 = 0.0184400000000000, phase = 1238160133.5651631355285645, freq = 188.7123407126661903, P = 4995.2629999999999200
a0 = 0.0184400000000000 phase bin = 1
NEW MAX: Score = 6.225379, loglike = 169.465113, a0 = 0.0184400000000000, phase = 1238160166.1664347648620605, freq = 188.8236716785361295, P = 4995.2629999999999200
a0 = 0.0184400000000000 phase bin = 2
a0 = 0.0184400000000000 phase bin = 3
NEW MAX: Score = 6.648848, loglike = 174.100484, a0 = 0.0184400000000000, phase = 1238160231.3689782619476318, freq = 188.8605379805464679, P = 4995.2629999999999200
a0 = 0.0184400000000000 phase bin = 4
a0 = 0.0184400000000000 phase bin = 5
a0 = 0.0184400000000000 phase bin = 6
a0 = 0.0184400000000000 phase bin = 7
a0 = 0.0184400000000000 phase bin = 8
Mean score: 6.0323208420068761
Calculated variance: 112.2675993910915082
Calculated mean: 103.6515500013923798
Max loglike = 174.100484, max score = 6.648848 --- a0 = 0.0184400000000000, phase = 1238160231.3689782619476318, freq = 188.8605379805464679

 -- subprocess standard error:

 -- 
